--Coding


Creating a common `ResponseEntity` structure for all `200 OK` responses in a Spring Boot application is a best practice for consistency, maintainability, and clarity in your API. This can be achieved by designing a standardized JSON structure that encapsulates the response data, message, and any additional metadata.

### Common Response Structure:
For example, you could design your `200 OK` responses to have the following JSON structure:

```json
{
  "status": 200,
  "message": "Success",
  "data": {...},  // The actual response data
  "timestamp": "2024-08-18T10:00:00Z"
}
```

### Best Practices for 200 OK Responses:
1. **Standardize the Structure**:
   Every response for successful operations should follow a consistent structure, even when there is no data to return. This ensures predictability for API consumers.
   
   ```json
   {
     "status": 200,
     "message": "Success",
     "data": {...},
     "timestamp": "2024-08-18T10:00:00Z"
   }
   ```

2. **Include Status Code**:
   Always include the HTTP status code in the response body to make it easy for the consumer to check and confirm the status without having to rely solely on HTTP headers.
   
   ```json
   {
     "status": 200,
     "message": "Success",
     "data": {...}
   }
   ```

3. **Message Field**:
   Provide a descriptive message to indicate the result of the operation, such as `"Success"`, `"Operation Completed"`, `"Resource Created"`, etc. This adds clarity for the client consuming the API.
   
4. **Data Field**:
   Ensure that the `data` field is always present. Even if there is no data to return (like in a `POST` or `DELETE` operation), return `null` or an empty object/array instead of omitting the `data` field.
   
   - Example: For a `GET` request:
     ```json
     {
       "status": 200,
       "message": "Success",
       "data": { "id": 1, "name": "John Doe" }
     }
     ```
   
   - Example: For a `POST` request with no specific data:
     ```json
     {
       "status": 200,
       "message": "Resource Created",
       "data": null
     }
     ```

5. **Timestamp Field**:
   Including a timestamp in the response is useful for debugging and logging purposes. It helps in tracing when the response was generated.
   
6. **Handling Pagination**:
   If your response contains paginated data, include pagination metadata like `page`, `size`, `totalItems`, `totalPages`, etc.
   
   ```json
   {
     "status": 200,
     "message": "Success",
     "data": [...],
     "pagination": {
       "page": 1,
       "size": 10,
       "totalItems": 100,
       "totalPages": 10
     }
   }
   ```

### Example Common Response Wrapper Class in Java:

You can define a generic `ApiResponse` class to encapsulate the standard response structure:

```java
public class ApiResponse<T> {
    private int status;
    private String message;
    private T data;
    private LocalDateTime timestamp;

    public ApiResponse(int status, String message, T data) {
        this.status = status;
        this.message = message;
        this.data = data;
        this.timestamp = LocalDateTime.now();
    }

    // Getters and Setters
}
```

### Example Controller Usage:
```java
@RestController
public class UserController {

    @GetMapping("/users/{id}")
    public ResponseEntity<ApiResponse<User>> getUser(@PathVariable Long id) {
        User user = userService.getUserById(id);
        ApiResponse<User> response = new ApiResponse<>(200, "Success", user);
        return new ResponseEntity<>(response, HttpStatus.OK);
    }

    @PostMapping("/users")
    public ResponseEntity<ApiResponse<Void>> createUser(@RequestBody User user) {
        userService.saveUser(user);
        ApiResponse<Void> response = new ApiResponse<>(200, "User Created Successfully", null);
        return new ResponseEntity<>(response, HttpStatus.OK);
    }
}
```

### Advantages:
- **Consistency**: All 200 responses follow the same structure, making it easier to handle responses on the client side.
- **Clarity**: Provides clear messaging and metadata that helps both client developers and backend engineers debug easily.
- **Extendability**: You can easily add more fields (e.g., `warnings`, `links`, `meta`) if required later, without changing the response structure.

This pattern helps establish a standard for success responses in your API, leading to more reliable and predictable behavior across different endpoints.
