Pagination in Spring Data JPA can be achieved through various approaches, including using JPA Query Language (JQL) along with the Pageable interface provided by Spring Data. This allows you to handle large datasets efficiently by retrieving data in smaller, manageable chunks.



Basic Concepts
Pageable Interface: Provides pagination information, including page number, page size, and sorting.
Page Interface: Represents a page of results, including the content and pagination information.
JQL: Java Persistence Query Language, used to write queries against entities.
Example: Paginated Query with JQL
Suppose you have an entity User and you want to retrieve users with pagination.



1. Entity Class
java
Copy code
@Entity
public class User {
    @Id
    @GeneratedValue(strategy = GenerationType.IDENTITY)
    private Long id;

    private String name;
    private String email;

    // Getters and Setters
}
2. Repository Interface
You can extend JpaRepository and define a method using JQL to support pagination.



java
Copy code
public interface UserRepository extends JpaRepository<User, Long> {

    @Query("SELECT u FROM User u WHERE u.name LIKE %:name%")
    Page<User> findByNameContaining(@Param("name") String name, Pageable pageable);
}
3. Service Layer
In the service layer, you can call the repository method and pass the Pageable object.



java
Copy code
@Service
public class UserService {

    @Autowired
    private UserRepository userRepository;

    public Page<User> getUsersByName(String name, int page, int size) {
        Pageable pageable = PageRequest.of(page, size, Sort.by("name").ascending());
        return userRepository.findByNameContaining(name, pageable);
    }
}
4. Controller Layer
In the controller, you can handle HTTP requests for paginated results.



java
Copy code
@RestController
@RequestMapping("/api/users")
public class UserController {

    @Autowired
    private UserService userService;

    @GetMapping
    public ResponseEntity<Page<User>> getUsers(
            @RequestParam(defaultValue = "") String name,
            @RequestParam(defaultValue = "0") int page,
            @RequestParam(defaultValue = "10") int size) {
        
        Page<User> userPage = userService.getUsersByName(name, page, size);
        return ResponseEntity.ok(userPage);
    }
}
How It Works
PageRequest.of(page, size, Sort.by("name").ascending()): Creates a Pageable object with the specified page number, page size, and sorting order.
Page<User>: Contains the results for the requested page, as well as metadata such as the total number of pages and elements.
Page<User> in the response: Allows clients to easily access paginated results along with metadata about the pagination.
Example Response
If you request /api/users?name=John&page=1&size=5, the response might look like this:



json
Copy code
{
    "content": [
        {"id": 6, "name": "John Doe", "email": "john.doe@example.com"},
        {"id": 7, "name": "John Smith", "email": "john.smith@example.com"}
    ],
    "pageable": {
        "sort": {"sorted": true, "unsorted": false, "empty": false},
        "pageSize": 5,
        "pageNumber": 1,
        "offset": 5,
        "paged": true,
        "unpaged": false
    },
    "totalPages": 2,
    "totalElements": 7,
    "last": true,
    "first": false,
    "numberOfElements": 2,
    "size": 5,
    "number": 1,
    "empty": false
}
Key Points
Efficiency: Only the required page of data is fetched from the database.
Flexibility: Easily control the size of the page and sorting options.
Metadata: Pagination details (e.g., total pages, total elements) are included, making it easy to navigate through the data.
By leveraging pagination with Spring Data JPA and JQL, you can efficiently handle large datasets in your application.
